…
library(dplyr)
load(here::here("dataset/income_mortality.RData"))
world_map <- map_data("world")

world_map %>% 
  left_join(income_mortality, by = c("region" = "Country")) -> act_world_map
act_world_map1970 <- act_world_map %>% filter(Year == c("1970"))

income_mortality[order(income_mortality$Mortality), ]

## # A tibble: 12,567 × 6
##    Country     Year Mortality Income Pop_size Continent
##    <chr>      <dbl>     <dbl>  <dbl>    <dbl> <chr>    
##  1 San Marino  2020     0.176  59300    34000 Europe   
##  2 San Marino  2019     0.183  56500    33900 Europe   
##  3 San Marino  2018     0.191  60800    33900 Europe   
##  4 Iceland     2020     0.193  53400   343000 Europe   
##  5 San Marino  2017     0.199  59600    33800 Europe   
##  6 Iceland     2019     0.2    51900   341000 Europe   
##  7 Iceland     2018     0.207  56900   339000 Europe   
##  8 San Marino  2016     0.208  58900    33700 Europe   
##  9 Estonia     2020     0.211  38200  1330000 Europe   
## 10 Iceland     2017     0.214  56800   337000 Europe   
## # … with 12,557 more rows

income_mortality[order(income_mortality$Mortality, decreasing= T), ]

## # A tibble: 12,567 × 6
##    Country       Year Mortality Income Pop_size Continent
##    <chr>        <dbl>     <dbl>  <dbl>    <dbl> <chr>    
##  1 Yemen         1957      45.1   1770  5170000 Asia     
##  2 Yemen         1958      44.3   1780  5240000 Asia     
##  3 Yemen         1959      43.7   1790  5320000 Asia     
##  4 Yemen         1960      43.0   1800  5390000 Asia     
##  5 Mali          1963      42.5   1040  5500000 Africa   
##  6 Yemen         1961      42.3   1810  5470000 Asia     
##  7 Mali          1964      41.8   1030  5570000 Africa   
##  8 Yemen         1962      41.6   1820  5560000 Asia     
##  9 Sierra Leone  1956      41.3   1270  2220000 Africa   
## 10 Mali          1965      41.0   1050  5640000 Africa   
## # … with 12,557 more rows
…
